EESchema Schematic File Version 4
LIBS:RAMPS_1-41-cache
EELAYER 26 0
EELAYER END
$Descr USLetter 11000 8500
encoding utf-8
Sheet 5 6
Title "Reprap Arduino Mega Pololu Shield"
Date "2018-08-21"
Rev "1.4"
Comp ""
Comment1 ""
Comment2 ""
Comment3 ""
Comment4 ""
$EndDescr
Wire Wire Line
	3950 4850 3950 4750
Wire Wire Line
	3550 4750 3950 4750
Wire Wire Line
	2550 4750 3550 4750
Connection ~ 3550 4750
Text Label 3950 4850 0    10   ~ 0
GND
Wire Wire Line
	2550 4150 2850 4150
Text Label 2550 4150 0    10   ~ 0
GND
Wire Wire Line
	5350 4050 5350 4550
Wire Wire Line
	5350 4550 5350 4850
Connection ~ 5350 4550
Text Label 5350 4050 0    10   ~ 0
GND
Wire Wire Line
	4250 3150 4550 3150
Text Label 4250 3150 0    10   ~ 0
VCC
Wire Wire Line
	3450 4450 3550 4450
Wire Wire Line
	3550 4450 3750 4450
Wire Wire Line
	3750 4450 3750 4150
Wire Wire Line
	3850 4450 3750 4450
Wire Wire Line
	3550 4550 3550 4450
Connection ~ 3750 4450
Connection ~ 3550 4450
Text Label 3450 4450 0    10   ~ 0
+12V
Wire Wire Line
	5050 4550 5050 4050
Wire Wire Line
	5050 4050 5050 3650
Connection ~ 5050 4050
Text Label 5050 4550 0    10   ~ 0
+12V
Wire Wire Line
	4050 4450 4650 4450
Text Label 4550 4450 0    70   ~ 0
AM-VIN
Wire Wire Line
	2550 3850 2650 3850
Wire Wire Line
	3350 3750 3350 3850
Wire Wire Line
	3350 3850 3050 3850
Text Label 3350 3750 0    10   ~ 0
+12V2
Wire Wire Line
	2550 4450 3050 4450
Wire Wire Line
	4550 3550 3950 3550
Text Label 3950 3550 0    70   ~ 0
D12
Wire Wire Line
	4550 3950 3950 3950
Text Label 4550 3950 0    10   ~ 0
+5V
$Comp
L RAMPS_1-41_eagle9-eagle-import:GND #GND0127
U 1 0 5BDD8505
P 3950 4950
F 0 "#GND0127" H 3950 4950 50  0001 C CNN
F 1 "GND" H 3850 4850 59  0000 L BNN
F 2 "" H 3950 4950 50  0001 C CNN
F 3 "" H 3950 4950 50  0001 C CNN
	1    3950 4950
	1    0    0    -1  
$EndComp
$Comp
L RAMPS_1-41_eagle9-eagle-import:+12V #P+0136
U 1 0 5BDD850B
P 3750 4050
F 0 "#P+0136" H 3750 4050 50  0001 C CNN
F 1 "+12V" V 3650 3850 59  0000 L BNN
F 2 "" H 3750 4050 50  0001 C CNN
F 3 "" H 3750 4050 50  0001 C CNN
	1    3750 4050
	1    0    0    -1  
$EndComp
$Comp
L RAMPS_1-41_eagle9-eagle-import:1N4004 D?
U 1 0 5BDD8511
P 3950 4450
AR Path="/5BDD8511" Ref="D?"  Part="1" 
AR Path="/5BDCB418/5BDD8511" Ref="D1"  Part="1" 
F 0 "D1" H 4050 4469 59  0000 L BNN
F 1 "1N4004" H 4050 4359 59  0000 L BNN
F 2 "RAMPS_1-41_eagle9:DO41-10" H 3950 4450 50  0001 C CNN
F 3 "" H 3950 4450 50  0001 C CNN
	1    3950 4450
	1    0    0    -1  
$EndComp
$Comp
L RAMPS_1-41_eagle9-eagle-import:CPOL-US153CLV-0605 C?
U 1 0 5BDD8518
P 5150 4050
AR Path="/5BDD8518" Ref="C?"  Part="1" 
AR Path="/5BDCB418/5BDD8518" Ref="C6"  Part="1" 
F 0 "C6" H 5190 4075 59  0000 L BNN
F 1 "100uF" H 5190 3885 59  0000 L BNN
F 2 "RAMPS_1-41_eagle9:153CLV-0605" H 5150 4050 50  0001 C CNN
F 3 "" H 5150 4050 50  0001 C CNN
	1    5150 4050
	0    -1   -1   0   
$EndComp
$Comp
L RAMPS_1-41_eagle9-eagle-import:PINHD-1X1 5V?
U 1 0 5BDD851F
P 4650 3950
AR Path="/5BDD851F" Ref="5V?"  Part="1" 
AR Path="/5BDCB418/5BDD851F" Ref="5V1"  Part="1" 
F 0 "5V1" H 4400 4075 59  0000 L BNN
F 1 "PINHD-1X1" H 4400 3750 59  0000 L BNN
F 2 "RAMPS_1-41_eagle9:1X01" H 4650 3950 50  0001 C CNN
F 3 "" H 4650 3950 50  0001 C CNN
	1    4650 3950
	1    0    0    -1  
$EndComp
$Comp
L RAMPS_1-41_eagle9-eagle-import:PINHD-1X1 PS-ON?
U 1 0 5BDD8526
P 4650 3550
AR Path="/5BDD8526" Ref="PS-ON?"  Part="1" 
AR Path="/5BDCB418/5BDD8526" Ref="PS-ON1"  Part="1" 
F 0 "PS-ON1" H 4400 3675 59  0000 L BNN
F 1 "PINHD-1X1" H 4400 3350 59  0000 L BNN
F 2 "RAMPS_1-41_eagle9:1X01" H 4650 3550 50  0001 C CNN
F 3 "" H 4650 3550 50  0001 C CNN
	1    4650 3550
	1    0    0    -1  
$EndComp
$Comp
L RAMPS_1-41_eagle9-eagle-import:PTCFUSE F?
U 1 0 5BDD852D
P 3250 4450
AR Path="/5BDD852D" Ref="F?"  Part="1" 
AR Path="/5BDCB418/5BDD852D" Ref="F1"  Part="1" 
F 0 "F1" H 3100 4505 59  0000 L BNN
F 1 "MFR500" H 3100 4335 59  0000 L BNN
F 2 "RAMPS_1-41_eagle9:MFR500" H 3250 4450 50  0001 C CNN
F 3 "" H 3250 4450 50  0001 C CNN
	1    3250 4450
	-1   0    0    1   
$EndComp
$Comp
L RAMPS_1-41_eagle9-eagle-import:PTCFUSEMFR1100 F?
U 1 0 5BDD8534
P 2850 3850
AR Path="/5BDD8534" Ref="F?"  Part="1" 
AR Path="/5BDCB418/5BDD8534" Ref="F2"  Part="1" 
F 0 "F2" H 2700 3905 59  0000 L BNN
F 1 "MFR1100" H 2700 3735 59  0000 L BNN
F 2 "RAMPS_1-41_eagle9:MFR1100" H 2850 3850 50  0001 C CNN
F 3 "" H 2850 3850 50  0001 C CNN
	1    2850 3850
	1    0    0    -1  
$EndComp
$Comp
L RAMPS_1-41_eagle9-eagle-import:MSTBA4 X?
U 1 0 5BDD853B
P 2350 3850
AR Path="/5BDD853B" Ref="X?"  Part="1" 
AR Path="/5BDCB418/5BDD853B" Ref="X4"  Part="1" 
F 0 "X4" H 2090 3885 59  0000 R TNN
F 1 "MSTBA4" H 2050 3700 59  0000 L BNN
F 2 "RAMPS_1-41_eagle9:MSTBA4" H 2350 3850 50  0001 C CNN
F 3 "" H 2350 3850 50  0001 C CNN
	1    2350 3850
	1    0    0    -1  
$EndComp
$Comp
L RAMPS_1-41_eagle9-eagle-import:MSTBA4 X?
U 2 0 5BDD8542
P 2350 4150
AR Path="/5BDD8542" Ref="X?"  Part="2" 
AR Path="/5BDCB418/5BDD8542" Ref="X4"  Part="2" 
F 0 "X4" H 2090 4185 59  0000 R TNN
F 1 "MSTBA4" H 2050 4000 59  0000 L BNN
F 2 "RAMPS_1-41_eagle9:MSTBA4" H 2350 4150 50  0001 C CNN
F 3 "" H 2350 4150 50  0001 C CNN
	2    2350 4150
	1    0    0    -1  
$EndComp
$Comp
L RAMPS_1-41_eagle9-eagle-import:MSTBA4 X?
U 3 0 5BDD8549
P 2350 4450
AR Path="/5BDD8549" Ref="X?"  Part="3" 
AR Path="/5BDCB418/5BDD8549" Ref="X4"  Part="3" 
F 0 "X4" H 2090 4485 59  0000 R TNN
F 1 "MSTBA4" H 2050 4300 59  0000 L BNN
F 2 "RAMPS_1-41_eagle9:MSTBA4" H 2350 4450 50  0001 C CNN
F 3 "" H 2350 4450 50  0001 C CNN
	3    2350 4450
	1    0    0    -1  
$EndComp
$Comp
L RAMPS_1-41_eagle9-eagle-import:MSTBA4 X?
U 4 0 5BDD8550
P 2350 4750
AR Path="/5BDD8550" Ref="X?"  Part="4" 
AR Path="/5BDCB418/5BDD8550" Ref="X4"  Part="4" 
F 0 "X4" H 2090 4785 59  0000 R TNN
F 1 "MSTBA4" H 2050 4600 59  0000 L BNN
F 2 "RAMPS_1-41_eagle9:MSTBA4" H 2350 4750 50  0001 C CNN
F 3 "" H 2350 4750 50  0001 C CNN
	4    2350 4750
	1    0    0    -1  
$EndComp
$Comp
L RAMPS_1-41_eagle9-eagle-import:1N4004 D?
U 1 0 5BDD8557
P 3550 4650
AR Path="/5BDD8557" Ref="D?"  Part="1" 
AR Path="/5BDCB418/5BDD8557" Ref="D2"  Part="1" 
F 0 "D2" H 3250 4669 59  0000 L BNN
F 1 "1N4004" H 3050 4559 59  0000 L BNN
F 2 "RAMPS_1-41_eagle9:DO41-10" H 3550 4650 50  0001 C CNN
F 3 "" H 3550 4650 50  0001 C CNN
	1    3550 4650
	0    -1   -1   0   
$EndComp
$Comp
L RAMPS_1-41_eagle9-eagle-import:+12V #P+0137
U 1 0 5BDD855E
P 3350 3650
F 0 "#P+0137" H 3350 3650 50  0001 C CNN
F 1 "+12V2" V 3250 3450 59  0000 L BNN
F 2 "" H 3350 3650 50  0001 C CNN
F 3 "" H 3350 3650 50  0001 C CNN
	1    3350 3650
	1    0    0    -1  
$EndComp
$Comp
L RAMPS_1-41_eagle9-eagle-import:GND #GND0128
U 1 0 5BDD8564
P 2850 4250
F 0 "#GND0128" H 2850 4250 50  0001 C CNN
F 1 "GND" H 2750 4150 59  0000 L BNN
F 2 "" H 2850 4250 50  0001 C CNN
F 3 "" H 2850 4250 50  0001 C CNN
	1    2850 4250
	1    0    0    -1  
$EndComp
$Comp
L RAMPS_1-41_eagle9-eagle-import:GND #GND0129
U 1 0 5BDD856A
P 5350 4950
F 0 "#GND0129" H 5350 4950 50  0001 C CNN
F 1 "GND" H 5250 4850 59  0000 L BNN
F 2 "" H 5350 4950 50  0001 C CNN
F 3 "" H 5350 4950 50  0001 C CNN
	1    5350 4950
	1    0    0    -1  
$EndComp
$Comp
L RAMPS_1-41_eagle9-eagle-import:+12V #P+0138
U 1 0 5BDD8570
P 5050 3550
F 0 "#P+0138" H 5050 3550 50  0001 C CNN
F 1 "+12V" V 4950 3350 59  0000 L BNN
F 2 "" H 5050 3550 50  0001 C CNN
F 3 "" H 5050 3550 50  0001 C CNN
	1    5050 3550
	1    0    0    -1  
$EndComp
$Comp
L RAMPS_1-41_eagle9-eagle-import:C-EUC0805 C?
U 1 0 5BDD8576
P 5150 4550
AR Path="/5BDD8576" Ref="C?"  Part="1" 
AR Path="/5BDCB418/5BDD8576" Ref="C2"  Part="1" 
F 0 "C2" H 5210 4565 59  0000 L BNN
F 1 "100nF" H 5210 4365 59  0000 L BNN
F 2 "RAMPS_1-41_eagle9:C0805" H 5150 4550 50  0001 C CNN
F 3 "" H 5150 4550 50  0001 C CNN
	1    5150 4550
	0    -1   -1   0   
$EndComp
$Comp
L RAMPS_1-41_eagle9-eagle-import:+5V #P+0139
U 1 0 5BDD857D
P 3950 3850
F 0 "#P+0139" H 3950 3850 50  0001 C CNN
F 1 "+5V" V 3850 3650 59  0000 L BNN
F 2 "" H 3950 3850 50  0001 C CNN
F 3 "" H 3950 3850 50  0001 C CNN
	1    3950 3850
	1    0    0    -1  
$EndComp
$Comp
L RAMPS_1-41_eagle9-eagle-import:PINHD-1X1 VCC?
U 1 0 5BDD8583
P 4650 3150
AR Path="/5BDD8583" Ref="VCC?"  Part="1" 
AR Path="/5BDCB418/5BDD8583" Ref="VCC1"  Part="1" 
F 0 "VCC1" H 4400 3275 59  0000 L BNN
F 1 "PINHD-1X1" H 4400 2950 59  0000 L BNN
F 2 "RAMPS_1-41_eagle9:1X01" H 4650 3150 50  0001 C CNN
F 3 "" H 4650 3150 50  0001 C CNN
	1    4650 3150
	1    0    0    -1  
$EndComp
$Comp
L RAMPS_1-41_eagle9-eagle-import:VCC #P+0140
U 1 0 5BDD858A
P 4250 3050
F 0 "#P+0140" H 4250 3050 50  0001 C CNN
F 1 "VCC" V 4150 2950 59  0000 L BNN
F 2 "" H 4250 3050 50  0001 C CNN
F 3 "" H 4250 3050 50  0001 C CNN
	1    4250 3050
	1    0    0    -1  
$EndComp
$Comp
L RAMPS_1-41_eagle9-eagle-import:M02PTH 12V-AUX?
U 1 0 5BDD8590
P 4850 4850
AR Path="/5BDD8590" Ref="12V-AUX?"  Part="1" 
AR Path="/5BDCB418/5BDD8590" Ref="12V-AUX1"  Part="1" 
F 0 "12V-AUX1" H 4750 5080 59  0000 L BNN
F 1 "M02PTH" H 4750 4650 59  0000 L BNN
F 2 "RAMPS_1-41_eagle9:1X02" H 4850 4850 50  0001 C CNN
F 3 "" H 4850 4850 50  0001 C CNN
	1    4850 4850
	-1   0    0    1   
$EndComp
$Comp
L RAMPS_1-41_eagle9-eagle-import:+12V #P+0141
U 1 0 5BDD8597
P 4550 4750
F 0 "#P+0141" H 4550 4750 50  0001 C CNN
F 1 "+12V" V 4450 4550 59  0000 L BNN
F 2 "" H 4550 4750 50  0001 C CNN
F 3 "" H 4550 4750 50  0001 C CNN
	1    4550 4750
	1    0    0    -1  
$EndComp
$Comp
L RAMPS_1-41_eagle9-eagle-import:GND #GND0130
U 1 0 5BDD859D
P 4550 5050
F 0 "#GND0130" H 4550 5050 50  0001 C CNN
F 1 "GND" H 4450 4950 59  0000 L BNN
F 2 "" H 4550 5050 50  0001 C CNN
F 3 "" H 4550 5050 50  0001 C CNN
	1    4550 5050
	1    0    0    -1  
$EndComp
Wire Wire Line
	8450 2900 8250 2900
Text Label 8450 2900 0    10   ~ 0
GND
Wire Wire Line
	7450 2900 7250 2900
Text Label 7250 2900 0    70   ~ 0
LED
Wire Wire Line
	7850 2900 7950 2900
$Comp
L RAMPS_1-41_eagle9-eagle-import:LEDCHIP-LED0805 LED?
U 1 0 5BE0CCC1
P 8050 2900
AR Path="/5BE0CCC1" Ref="LED?"  Part="1" 
AR Path="/5BDCB418/5BE0CCC1" Ref="LED1"  Part="1" 
F 0 "LED1" V 8190 2720 59  0000 L BNN
F 1 "LEDCHIP-LED0805" V 8275 2720 59  0000 L BNN
F 2 "RAMPS_1-41_eagle9:CHIP-LED0805" H 8050 2900 50  0001 C CNN
F 3 "" H 8050 2900 50  0001 C CNN
	1    8050 2900
	0    -1   -1   0   
$EndComp
$Comp
L RAMPS_1-41_eagle9-eagle-import:GND #GND?
U 1 0 5BE0CCC8
P 8450 3000
AR Path="/5BE0CCC8" Ref="#GND?"  Part="1" 
AR Path="/5BDCB418/5BE0CCC8" Ref="#GND0131"  Part="1" 
F 0 "#GND0131" H 8450 3000 50  0001 C CNN
F 1 "GND" H 8350 2900 59  0000 L BNN
F 2 "" H 8450 3000 50  0001 C CNN
F 3 "" H 8450 3000 50  0001 C CNN
	1    8450 3000
	1    0    0    -1  
$EndComp
$Comp
L RAMPS_1-41_eagle9-eagle-import:R-US_R0805 R?
U 1 0 5BE0CCCE
P 7650 2900
AR Path="/5BE0CCCE" Ref="R?"  Part="1" 
AR Path="/5BDCB418/5BE0CCCE" Ref="R12"  Part="1" 
F 0 "R12" H 7500 2959 59  0000 L BNN
F 1 "1K" H 7500 2770 59  0000 L BNN
F 2 "RAMPS_1-41_eagle9:R0805" H 7650 2900 50  0001 C CNN
F 3 "" H 7650 2900 50  0001 C CNN
	1    7650 2900
	-1   0    0    1   
$EndComp
Wire Wire Line
	7350 4550 7650 4550
Text Label 7350 4550 0    10   ~ 0
GND
Wire Wire Line
	8050 4550 8550 4550
Text Label 8250 4550 0    70   ~ 0
RESET
$Comp
L RAMPS_1-41_eagle9-eagle-import:GND #GND?
U 1 0 5BE19127
P 7350 4650
AR Path="/5BE19127" Ref="#GND?"  Part="1" 
AR Path="/5BDCB418/5BE19127" Ref="#GND0132"  Part="1" 
F 0 "#GND0132" H 7350 4650 50  0001 C CNN
F 1 "GND" H 7250 4550 59  0000 L BNN
F 2 "" H 7350 4650 50  0001 C CNN
F 3 "" H 7350 4650 50  0001 C CNN
	1    7350 4650
	1    0    0    -1  
$EndComp
$Comp
L RAMPS_1-41_eagle9-eagle-import:31-XX S?
U 1 0 5BE1912D
P 7850 4550
AR Path="/5BE1912D" Ref="S?"  Part="1" 
AR Path="/5BDCB418/5BE1912D" Ref="S1"  Part="1" 
F 0 "S1" V 7600 4475 59  0000 L BNN
F 1 "31-XX" V 7700 4675 59  0000 L BNN
F 2 "RAMPS_1-41_eagle9:B3F-31XX" H 7850 4550 50  0001 C CNN
F 3 "" H 7850 4550 50  0001 C CNN
	1    7850 4550
	0    1    1    0   
$EndComp
Text Notes 7650 2450 0    170  ~ 0
LED
Text Notes 7550 4100 0    170  ~ 0
Reset
Text Notes 3000 2650 0    170  ~ 0
Power
$EndSCHEMATC
