(module 1X04 (layer F.Cu) (tedit 0)
  (descr "<b>PIN HEADER</b>")
  (fp_text reference Z-MOT1 (at -3.8862 -1.8288) (layer F.SilkS) hide
    (effects (font (size 1.2065 1.2065) (thickness 0.127)) (justify left bottom))
  )
  (fp_text value "" (at -3.81 3.175) (layer F.Fab)
    (effects (font (size 1.2065 1.2065) (thickness 0.09652)) (justify left bottom))
  )
  (fp_poly (pts (xy -0.254 0.254) (xy 0.254 0.254) (xy 0.254 -0.254) (xy -0.254 -0.254)) (layer F.Fab) (width 0))
  (fp_poly (pts (xy -2.794 0.254) (xy -2.286 0.254) (xy -2.286 -0.254) (xy -2.794 -0.254)) (layer F.Fab) (width 0))
  (fp_poly (pts (xy 2.286 0.254) (xy 2.794 0.254) (xy 2.794 -0.254) (xy 2.286 -0.254)) (layer F.Fab) (width 0))
  (fp_poly (pts (xy 4.826 0.254) (xy 5.334 0.254) (xy 5.334 -0.254) (xy 4.826 -0.254)) (layer F.Fab) (width 0))
  (pad 1 thru_hole circle (at -2.54 0 90) (size 1.6256 1.6256) (drill 1.016) (layers *.Cu *.Mask)
    (solder_mask_margin 0.1016))
  (pad 2 thru_hole circle (at 0 0 90) (size 1.6256 1.6256) (drill 1.016) (layers *.Cu *.Mask)
    (solder_mask_margin 0.1016))
  (pad 3 thru_hole circle (at 2.54 0 90) (size 1.6256 1.6256) (drill 1.016) (layers *.Cu *.Mask)
    (solder_mask_margin 0.1016))
  (pad 4 thru_hole circle (at 5.08 0 90) (size 1.6256 1.6256) (drill 1.016) (layers *.Cu *.Mask)
    (solder_mask_margin 0.1016))
)
