(module 1X06 (layer F.Cu) (tedit 0)
  (fp_text reference JP7 (at -1.3462 -1.8288) (layer F.SilkS) hide
    (effects (font (size 1.2065 1.2065) (thickness 0.127)) (justify left bottom))
  )
  (fp_text value "" (at -1.27 3.175) (layer F.Fab)
    (effects (font (size 1.2065 1.2065) (thickness 0.09652)) (justify left bottom))
  )
  (fp_line (start 11.43 -0.635) (end 12.065 -1.27) (layer F.SilkS) (width 0.2032))
  (fp_line (start 12.065 -1.27) (end 13.335 -1.27) (layer F.SilkS) (width 0.2032))
  (fp_line (start 13.335 -1.27) (end 13.97 -0.635) (layer F.SilkS) (width 0.2032))
  (fp_line (start 13.97 0.635) (end 13.335 1.27) (layer F.SilkS) (width 0.2032))
  (fp_line (start 13.335 1.27) (end 12.065 1.27) (layer F.SilkS) (width 0.2032))
  (fp_line (start 12.065 1.27) (end 11.43 0.635) (layer F.SilkS) (width 0.2032))
  (fp_line (start 6.985 -1.27) (end 8.255 -1.27) (layer F.SilkS) (width 0.2032))
  (fp_line (start 8.255 -1.27) (end 8.89 -0.635) (layer F.SilkS) (width 0.2032))
  (fp_line (start 8.89 0.635) (end 8.255 1.27) (layer F.SilkS) (width 0.2032))
  (fp_line (start 8.89 -0.635) (end 9.525 -1.27) (layer F.SilkS) (width 0.2032))
  (fp_line (start 9.525 -1.27) (end 10.795 -1.27) (layer F.SilkS) (width 0.2032))
  (fp_line (start 10.795 -1.27) (end 11.43 -0.635) (layer F.SilkS) (width 0.2032))
  (fp_line (start 11.43 0.635) (end 10.795 1.27) (layer F.SilkS) (width 0.2032))
  (fp_line (start 10.795 1.27) (end 9.525 1.27) (layer F.SilkS) (width 0.2032))
  (fp_line (start 9.525 1.27) (end 8.89 0.635) (layer F.SilkS) (width 0.2032))
  (fp_line (start 3.81 -0.635) (end 4.445 -1.27) (layer F.SilkS) (width 0.2032))
  (fp_line (start 4.445 -1.27) (end 5.715 -1.27) (layer F.SilkS) (width 0.2032))
  (fp_line (start 5.715 -1.27) (end 6.35 -0.635) (layer F.SilkS) (width 0.2032))
  (fp_line (start 6.35 0.635) (end 5.715 1.27) (layer F.SilkS) (width 0.2032))
  (fp_line (start 5.715 1.27) (end 4.445 1.27) (layer F.SilkS) (width 0.2032))
  (fp_line (start 4.445 1.27) (end 3.81 0.635) (layer F.SilkS) (width 0.2032))
  (fp_line (start 6.985 -1.27) (end 6.35 -0.635) (layer F.SilkS) (width 0.2032))
  (fp_line (start 6.35 0.635) (end 6.985 1.27) (layer F.SilkS) (width 0.2032))
  (fp_line (start 8.255 1.27) (end 6.985 1.27) (layer F.SilkS) (width 0.2032))
  (fp_line (start -0.635 -1.27) (end 0.635 -1.27) (layer F.SilkS) (width 0.2032))
  (fp_line (start 0.635 -1.27) (end 1.27 -0.635) (layer F.SilkS) (width 0.2032))
  (fp_line (start 1.27 0.635) (end 0.635 1.27) (layer F.SilkS) (width 0.2032))
  (fp_line (start 1.27 -0.635) (end 1.905 -1.27) (layer F.SilkS) (width 0.2032))
  (fp_line (start 1.905 -1.27) (end 3.175 -1.27) (layer F.SilkS) (width 0.2032))
  (fp_line (start 3.175 -1.27) (end 3.81 -0.635) (layer F.SilkS) (width 0.2032))
  (fp_line (start 3.81 0.635) (end 3.175 1.27) (layer F.SilkS) (width 0.2032))
  (fp_line (start 3.175 1.27) (end 1.905 1.27) (layer F.SilkS) (width 0.2032))
  (fp_line (start 1.905 1.27) (end 1.27 0.635) (layer F.SilkS) (width 0.2032))
  (fp_line (start -1.27 -0.635) (end -1.27 0.635) (layer F.SilkS) (width 0.2032))
  (fp_line (start -0.635 -1.27) (end -1.27 -0.635) (layer F.SilkS) (width 0.2032))
  (fp_line (start -1.27 0.635) (end -0.635 1.27) (layer F.SilkS) (width 0.2032))
  (fp_line (start 0.635 1.27) (end -0.635 1.27) (layer F.SilkS) (width 0.2032))
  (fp_line (start 13.97 -0.635) (end 13.97 0.635) (layer F.SilkS) (width 0.2032))
  (fp_poly (pts (xy 12.446 0.254) (xy 12.954 0.254) (xy 12.954 -0.254) (xy 12.446 -0.254)) (layer F.Fab) (width 0))
  (fp_poly (pts (xy 9.906 0.254) (xy 10.414 0.254) (xy 10.414 -0.254) (xy 9.906 -0.254)) (layer F.Fab) (width 0))
  (fp_poly (pts (xy 7.366 0.254) (xy 7.874 0.254) (xy 7.874 -0.254) (xy 7.366 -0.254)) (layer F.Fab) (width 0))
  (fp_poly (pts (xy 4.826 0.254) (xy 5.334 0.254) (xy 5.334 -0.254) (xy 4.826 -0.254)) (layer F.Fab) (width 0))
  (fp_poly (pts (xy 2.286 0.254) (xy 2.794 0.254) (xy 2.794 -0.254) (xy 2.286 -0.254)) (layer F.Fab) (width 0))
  (fp_poly (pts (xy -0.254 0.254) (xy 0.254 0.254) (xy 0.254 -0.254) (xy -0.254 -0.254)) (layer F.Fab) (width 0))
  (pad 1 thru_hole circle (at 0 0 90) (size 1.4224 1.4224) (drill 0.9) (layers *.Cu *.Mask)
    (solder_mask_margin 0.1016))
  (pad 2 thru_hole circle (at 2.54 0 90) (size 1.4224 1.4224) (drill 0.9) (layers *.Cu *.Mask)
    (solder_mask_margin 0.1016))
  (pad 3 thru_hole circle (at 5.08 0 90) (size 1.4224 1.4224) (drill 0.9) (layers *.Cu *.Mask)
    (solder_mask_margin 0.1016))
  (pad 4 thru_hole circle (at 7.62 0 90) (size 1.4224 1.4224) (drill 0.9) (layers *.Cu *.Mask)
    (solder_mask_margin 0.1016))
  (pad 5 thru_hole circle (at 10.16 0 90) (size 1.4224 1.4224) (drill 0.9) (layers *.Cu *.Mask)
    (solder_mask_margin 0.1016))
  (pad 6 thru_hole circle (at 12.7 0 90) (size 1.4224 1.4224) (drill 0.9) (layers *.Cu *.Mask)
    (solder_mask_margin 0.1016))
)
