(module 282837-6 (layer F.Cu) (tedit 0)
  (fp_text reference U$2 (at 0 0) (layer F.SilkS) hide
    (effects (font (size 1.27 1.27) (thickness 0.15)))
  )
  (fp_text value 282837-6 (at 0 0) (layer F.SilkS) hide
    (effects (font (size 1.27 1.27) (thickness 0.15)))
  )
  (fp_line (start -3.81 15.24) (end 3.81 15.24) (layer F.SilkS) (width 0.127))
  (fp_line (start 3.81 15.24) (end 3.81 -15.24) (layer F.SilkS) (width 0.127))
  (fp_line (start 3.81 -15.24) (end -3.81 -15.24) (layer F.SilkS) (width 0.127))
  (fp_line (start -3.81 -15.24) (end -3.81 15.24) (layer F.SilkS) (width 0.127))
  (pad P$1 thru_hole oval (at 0 12.7) (size 3.6192 1.8096) (drill 1.2) (layers *.Cu *.Mask)
    (solder_mask_margin 0.1016))
  (pad P$2 thru_hole oval (at 0 7.62) (size 3.6192 1.8096) (drill 1.2) (layers *.Cu *.Mask)
    (solder_mask_margin 0.1016))
  (pad P$3 thru_hole oval (at 0 2.54) (size 3.6192 1.8096) (drill 1.2) (layers *.Cu *.Mask)
    (solder_mask_margin 0.1016))
  (pad P$4 thru_hole oval (at 0 -2.54) (size 3.6192 1.8096) (drill 1.2) (layers *.Cu *.Mask)
    (solder_mask_margin 0.1016))
  (pad P$5 thru_hole oval (at 0 -7.62) (size 3.6192 1.8096) (drill 1.2) (layers *.Cu *.Mask)
    (solder_mask_margin 0.1016))
  (pad P$6 thru_hole oval (at 0 -12.7) (size 3.6192 1.8096) (drill 1.2) (layers *.Cu *.Mask)
    (solder_mask_margin 0.1016))
)
