(module TO220BV (layer F.Cu) (tedit 0)
  (descr "<b>Molded Package</b><p>\ngrid 2.54 mm")
  (fp_text reference Q3 (at -5.08 6.0452 -90) (layer F.SilkS)
    (effects (font (size 1.2065 1.2065) (thickness 0.12065)) (justify left bottom))
  )
  (fp_text value STP55NF06L (at -5.08 7.62) (layer F.Fab) hide
    (effects (font (size 1.2065 1.2065) (thickness 0.127)) (justify left bottom))
  )
  (fp_line (start 4.699 4.318) (end 4.953 4.064) (layer F.SilkS) (width 0.1524))
  (fp_line (start 4.699 4.318) (end -4.699 4.318) (layer F.SilkS) (width 0.1524))
  (fp_line (start -4.953 4.064) (end -4.699 4.318) (layer F.SilkS) (width 0.1524))
  (fp_line (start 5.08 1.143) (end 4.953 4.064) (layer F.SilkS) (width 0.1524))
  (fp_line (start -4.953 4.064) (end -5.08 1.143) (layer F.SilkS) (width 0.1524))
  (fp_circle (center -4.4958 3.7084) (end -4.2418 3.7084) (layer F.SilkS) (width 0))
  (fp_poly (pts (xy -5.334 0.762) (xy 5.334 0.762) (xy 5.334 0) (xy -5.334 0)) (layer F.SilkS) (width 0))
  (fp_poly (pts (xy -5.334 1.27) (xy -3.429 1.27) (xy -3.429 0.762) (xy -5.334 0.762)) (layer F.SilkS) (width 0))
  (fp_poly (pts (xy -1.651 1.27) (xy -0.889 1.27) (xy -0.889 0.762) (xy -1.651 0.762)) (layer F.SilkS) (width 0))
  (fp_poly (pts (xy -3.429 1.27) (xy -1.651 1.27) (xy -1.651 0.762) (xy -3.429 0.762)) (layer F.Fab) (width 0))
  (fp_poly (pts (xy 0.889 1.27) (xy 1.651 1.27) (xy 1.651 0.762) (xy 0.889 0.762)) (layer F.SilkS) (width 0))
  (fp_poly (pts (xy 3.429 1.27) (xy 5.334 1.27) (xy 5.334 0.762) (xy 3.429 0.762)) (layer F.SilkS) (width 0))
  (fp_poly (pts (xy -0.889 1.27) (xy 0.889 1.27) (xy 0.889 0.762) (xy -0.889 0.762)) (layer F.Fab) (width 0))
  (fp_poly (pts (xy 1.651 1.27) (xy 3.429 1.27) (xy 3.429 0.762) (xy 1.651 0.762)) (layer F.Fab) (width 0))
  (pad G thru_hole oval (at -2.54 2.54 90) (size 3.2512 1.6256) (drill 1.016) (layers *.Cu *.Mask)
    (solder_mask_margin 0.1016))
  (pad D thru_hole oval (at 0 2.54 90) (size 3.2512 1.6256) (drill 1.016) (layers *.Cu *.Mask)
    (solder_mask_margin 0.1016))
  (pad S thru_hole oval (at 2.54 2.54 90) (size 3.2512 1.6256) (drill 1.016) (layers *.Cu *.Mask)
    (solder_mask_margin 0.1016))
)
